id,name,model_id:id,group_id:id,perm_read,perm_write,perm_create,perm_unlink
access_tas_cost_driver_manager,access_tas_cost_driver_manager,model_tas_cost_driver,account.group_account_manager,1,1,1,1
access_tas_mrp_bom_cost_driver_manager,access_tas_mrp_bom_cost_driver_manager,model_tas_mrp_bom_cost_driver,account.group_account_manager,1,1,1,1
access_tas_product_cost_report_manager,access_tas_product_cost_report_manager,model_tas_product_cost_report,account.group_account_manager,1,1,1,1
access_tas_product_cost_report_line_manager,access_tas_product_cost_report_line_manager,model_tas_product_cost_report_line,account.group_account_manager,1,1,1,1
access_tas_product_cost_report_line_activity_manager,access_tas_product_cost_report_line_activity_manager,model_tas_product_cost_report_line_activity,account.group_account_manager,1,1,1,1
access_tas_mrp_production_cost_line_manager,access_tas_mrp_production_cost_line_manager,model_tas_mrp_production_cost_line,account.group_account_manager,1,1,1,1
